Customer Analytics - Project Analysis - Customer Transaction Data
…
    Customer            Freq            Monetary      
 Min.   :1000350   Min.   :  1.000   Min.   :      1  
 1st Qu.:2116865   1st Qu.:  1.000   1st Qu.:    158  
 Median :3471894   Median :  1.000   Median :    312  
 Mean   :3243219   Mean   :  1.597   Mean   :   1012  
 3rd Qu.:4291294   3rd Qu.:  1.000   3rd Qu.:    556  
 Max.   :5230122   Max.   :457.000   Max.   :3599713  

For the study here - I just define Freq as the number of orders within the 2 years period, i.e. even if within the same month or week.

Code

head(products_per_customer[order(products_per_customer$total_num_products, decreasing = TRUE), ], 30)

# A tibble: 30 × 2
   Customer total_num_products
      <dbl>              <dbl>
 1  3558061              84799
 2  4497811              15530
 3  1117958              10630
 4  3264222               6452
 5  1678261               1428
 6  2062441               1390
 7  1199830               1108
 8  1664656                720
 9  2011870                700
10  1900810                670
# ℹ 20 more rows

Code

head(orders_per_customer[order(orders_per_customer$Monetary, decreasing = TRUE), ], 30)

# A tibble: 30 × 3
   Customer  Freq Monetary
      <dbl> <int>    <dbl>
 1  3558061    20 3599713.
 2  1117958   457 2505904.
 3  4497811    14  875207.
 4  3264222    21  679898.
 5  1678261    22  349773.
 6  1494594    57  260759.
 7  4498726     9  189137.
 8  1199830    50  158623.
 9  2126742    60  114673.
10  2603534    45  108388.
# ℹ 20 more rows
…
